{
    "/assets/js/admin/banners/banners.js": "/assets/js/admin/banners/banners.js?id=107bf6973442c20192d9",
    "/assets/js/admin/images/main.js": "/assets/js/admin/images/main.js?id=0dfcd43df9a89c2fda1d",
    "/assets/js/admin/main-admin.js": "/assets/js/admin/main-admin.js?id=061b62cce80626b8f8b4",
    "/assets/js/admin/videos/videos.js": "/assets/js/admin/videos/videos.js?id=1e6191c75e040d0f98bf",
    "/assets/js/site/main-site.js": "/assets/js/site/main-site.js?id=daef691d31effa240108",
    "/assets/css/site/bootstrap-custom-site.css": "/assets/css/site/bootstrap-custom-site.css?id=be791387f1c3d8ae1dce",
    "/assets/css/site/main-site.css": "/assets/css/site/main-site.css?id=3eacd90b5cbdbbcfef13",
    "/assets/css/admin/main-admin.css": "/assets/css/admin/main-admin.css?id=e201143126b92f0fd637",
    "/assets/css/admin/bootstrap-custom-admin.css": "/assets/css/admin/bootstrap-custom-admin.css?id=c337b994bfc15d6ff5b3",
    "/assets/fa47/font-awesome.css": "/assets/fa47/font-awesome.css?id=be72b7dbf6af64169252"
}
